# Title: An-12 Cub
# Author: BMS
# Revision: Flight Model Manager ver:1.7.1.15 Date: 5/30/2015 11:39:35
#-----------------------------------------------------
# Comments
#-----------------------------------------------------
#Copy of C130
#MODIF MAV-JP / STORE LIMITER / TO BE USED WITH ASSOCIATED WCD
#MODIF Falcas landingAOA / elevatorRoll
#MODIF Falcas 14/10/2011
#
#-----------------------------------------------------
# SIMULATION INPUT PANEL
#-----------------------------------------------------
#
#-----------------------------------------------------
# INPUT MASS AND GEOMETRIC PROPERTIES
#-----------------------------------------------------
         +76469.000000  # Empty Weight (lbs)
          +1745.000000  # Reference Area
         +44330.000000  # Internal Fuel
#-----------------------------------------------------
# ANGLE OF ATTACK AND SIDESLIP LIMITS
#-----------------------------------------------------
            +20.000000  # AOA Max
             -5.000000  # AOA Min
             +5.000000  # Beta Max
             -5.000000  # Beta Min
             +2.300000  # Max G
            +60.000000  # Max Roll
           +200.000000  # Min Vcas
           +385.000000  # Max Vcas
           +250.000000  # Corner Vcas
             +8.000000  # Theta Max
             +3.000000  # Num Gear
#
#Gear    xPos [ft]          yPos [ft]         zPos [ft]         Extent [deg]
         +65.90         +0.00         +6.50         +100.00
         +94.00         -4.20         +6.50         +100.00
         +94.00         +4.20         +6.50         +100.00
#-----------------------------------------------------
# Physical data
#-----------------------------------------------------
            +55.600000  # CG Loc
           +156.000000  # Length
           +132.500000  # Span
             +6.800000  # Fus Radius
            +23.000000  # Tail Ht
#
# End of Airframe data
#
#
#     BASIC AERODYNAMIC COEFFICIENTS
#
#
#-----------------------------------------------------
#     MACH BREAKPOINTS
#-----------------------------------------------------
+5.000000  # Num MACH
#
  +0.000000  +0.400000  +0.600000  +0.800000  +0.860000
#-----------------------------------------------------
#     ALPHA BREAKPOINTS
#-----------------------------------------------------
+12.000000  # Num Alpha
#
 -20.000000 -10.000000  -5.000000  +0.000000  +5.000000 +10.000000 +15.000000 +20.000000 +25.000000 +30.000000
 +35.000000 +40.000000
#-----------------------------------------------------
#     LIFT COEFFICIENT  CL
#-----------------------------------------------------
+1.000000   # Table Multiplier
#
# Mach: 0
  -0.705600  -0.484400  -0.099100  +0.155000  +0.620000  +1.005000  +1.360400  +1.634900  +1.816100  +2.074300
  +2.152700  +2.141600
#
# Mach: 0.4
  -0.709300  -0.487300  -0.101200  +0.155000  +0.620000  +1.004000  +1.361000  +1.633000  +1.811400  +2.069000
  +2.152000  +2.143000
#
# Mach: 0.6
  -0.709300  -0.487300  -0.101200  +0.015500  +0.652000  +1.032400  +1.389100  +1.661100  +1.839500  +2.097400
  +2.180800  +2.170100
#
# Mach: 0.8
  -0.704000  -0.479000  -0.089600  +0.175000  +0.761900  +1.135300  +1.499600  +1.761900  +1.928600  +2.185000
  +2.288000  +2.284000
#
# Mach: 0.86
  -0.679000  -0.454000  -0.064600  +0.200000  +0.822800  +1.196200  +1.560500  +1.822800  +1.989000  +2.246400
  +2.340000  +2.340000
#
#-----------------------------------------------------
#     DRAG COEFFICIENT  CD
#-----------------------------------------------------
+0.666660   # Table Multiplier
#
# Mach: 0
  +0.198100  +0.148200  +0.035800  +0.015700  +0.033200  +0.080600  +0.181600  +0.458200  +0.575200  +0.859800
  +1.106000  +1.359900
#
# Mach: 0.4
  +0.187300  +0.147400  +0.057500  +0.014700  +0.032400  +0.065400  +0.146200  +0.288500  +0.461100  +0.688700
  +0.885700  +1.088800
#
# Mach: 0.6
  +0.188300  +0.148400  +0.058500  +0.015700  +0.034100  +0.069900  +0.150700  +0.293000  +0.465600  +0.693200
  +0.890200  +1.093400
#
# Mach: 0.8
  +0.197400  +0.157600  +0.063400  +0.016300  +0.035400  +0.073900  +0.153400  +0.297700  +0.468800  +0.698100
  +0.887700  +1.099200
#
# Mach: 0.86
  +0.202100  +0.162300  +0.068100  +0.021000  +0.035800  +0.074300  +0.153800  +0.298100  +0.469200  +0.698500
  +0.888100  +1.099000
#
#-----------------------------------------------------
#     SIDE FORCE DERIVATIVE CY-BETA
#-----------------------------------------------------
+1.000000   # Table Multiplier
#
# Mach: 0
  -0.011000  -0.010900  -0.016600  -0.018200  -0.019200  -0.018700  -0.016300  -0.017600  -0.016400  -0.015800
  -0.014100  -0.009000
#
# Mach: 0.4
  -0.011000  +0.370000  -0.016600  -0.018200  -0.019200  -0.018700  -0.016300  -0.017600  -0.016400  -0.015800
  -0.014100  -0.009000
#
# Mach: 0.6
  -0.011000  -0.010900  +0.570000  -0.018200  -0.019200  -0.018700  -0.016300  -0.017600  -0.016400  -0.015800
  -0.014100  -0.009000
#
# Mach: 0.8
  -0.011500  -0.011200  -0.017200  +0.690000  -0.019600  -0.019600  -0.016800  -0.017800  -0.016700  -0.016100
  -0.014800  -0.013000
#
# Mach: 0.86
  -0.012000  -0.011800  -0.018000  -0.019500  -0.740000  -0.020000  -0.017400  -0.018200  -0.017100  -0.016800
  -0.015500  -0.014200
#
# End of Aero Data
#
#-----------------------------------------------------
# PROPULSION DATA
#-----------------------------------------------------
#
      +4.000000   # Thrust multiplier
      +1.000000   # Fuel Flow Multiplier
#-----------------------------------------------------
# MACH BREAKPOINTS
#-----------------------------------------------------
+10.000000  # Number of Mach Breaks
#
  +0.000000  +0.100000  +0.200000  +0.300000  +0.400000  +0.500000  +0.600000  +0.700000  +0.800000  +0.900000

#-----------------------------------------------------
#     ALTITUDE BREAKPOINTS
#-----------------------------------------------------
+9.000000  # Number of Alt Break Points
#
  +0.000000 +5000.000000 +10000.000000 +15000.000000 +20000.000000 +25000.000000 +30000.000000 +35000.000000 +40000.000000
#
#-----------------------------------------------------
#    THRST1 - THRUST AT IDLE (THROTL = 0.00)
#-----------------------------------------------------
# Alt: 0
     +0.000000     +0.000000     +0.000000     +0.000000     +0.000000     +0.000000     +0.000000     +0.000000     +0.000000     +0.000000

#
# Alt: 5000
     +0.000000     +0.000000     +0.000000     +0.000000     +0.000000     +0.000000     +0.000000     +0.000000     +0.000000     +0.000000

#
# Alt: 10000
     +0.000000     +0.000000     +0.000000     +0.000000     +0.000000     +0.000000     +0.000000     +0.000000     +0.000000     +0.000000

#
# Alt: 15000
     +0.000000     +0.000000     +0.000000     +0.000000     +0.000000     +0.000000     +0.000000     +0.000000     +0.000000     +0.000000

#
# Alt: 20000
     +0.000000     +0.000000     +0.000000     +0.000000     +0.000000     +0.000000     +0.000000     +0.000000     +0.000000     +0.000000

#
# Alt: 25000
     +0.000000     +0.000000     +0.000000     +0.000000     +0.000000     +0.000000     +0.000000     +0.000000     +0.000000     +0.000000

#
# Alt: 30000
     +0.000000     +0.000000     +0.000000     +0.000000     +0.000000     +0.000000     +0.000000     +0.000000     +0.000000     +0.000000

#
# Alt: 35000
     +0.000000     +0.000000     +0.000000     +0.000000     +0.000000     +0.000000     +0.000000     +0.000000     +0.000000     +0.000000

#
# Alt: 40000
     +0.000000     +0.000000     +0.000000     +0.000000     +0.000000     +0.000000     +0.000000     +0.000000     +0.000000     +0.000000

#-----------------------------------------------------
#    THRST2 - THRUST AT MIL POWER (THROTL = 1.00)
#-----------------------------------------------------
# Alt: 0
 +16500.000000 +16500.000000  +9803.570000  +6321.430000  +5035.710000  +4392.860000  +3803.570000  +3642.860000  +3214.290000  +3107.140000

#
# Alt: 5000
 +13553.600000 +13553.600000  +7500.000000  +5410.710000  +4500.000000  +4017.860000  +3642.860000  +3321.430000  +3160.710000  +3053.570000

#
# Alt: 10000
 +11196.400000 +11196.400000  +6053.570000  +4392.860000  +3750.000000  +3321.430000  +3267.860000  +3160.710000  +2839.290000  +2678.570000

#
# Alt: 15000
  +9107.140000  +9107.140000  +4928.570000  +3696.430000  +3107.140000  +2785.710000  +2678.570000  +2625.000000  +2625.000000  +2571.430000

#
# Alt: 20000
  +7446.430000  +7446.430000  +3910.710000  +2892.860000  +2625.000000  +2357.140000  +2250.000000  +2142.860000  +2142.860000  +2196.430000

#
# Alt: 25000
  +5946.430000  +5946.430000  +3267.860000  +2410.710000  +2035.710000  +1875.000000  +1821.430000  +1714.290000  +1714.290000  +1714.290000

#
# Alt: 30000
  +4767.860000  +4767.860000  +2678.570000  +1875.000000  +1553.570000  +1500.000000  +1446.430000  +1392.860000  +1392.860000  +1392.860000

#
# Alt: 35000
  +3589.290000  +3589.290000  +2089.290000  +1339.290000  +1071.430000  +1125.000000  +1071.430000  +1071.430000  +1071.430000  +1071.430000

#
# Alt: 40000
  +2410.710000  +2410.710000  +1500.000000   +803.570000   +589.290000   +750.000000   +696.430000   +750.000000   +750.000000   +750.000000

#-----------------------------------------------------
#    THRST3 - THRUST AT FULL AB (THROTL = 1.05)
#-----------------------------------------------------
# Alt: 0
 +16500.000000 +16500.000000  +9803.570000  +6321.430000  +5035.710000  +4392.860000  +3803.570000  +3642.860000  +3214.290000  +3107.140000

#
# Alt: 5000
 +13553.600000 +13553.600000  +7500.000000  +5410.710000  +4500.000000  +4017.860000  +3642.860000  +3321.430000  +3160.710000  +3053.570000

#
# Alt: 10000
 +11196.400000 +11196.400000  +6053.570000  +4392.860000  +3750.000000  +3321.430000  +3267.860000  +3160.710000  +2839.290000  +2678.570000

#
# Alt: 15000
  +9107.140000  +9107.140000  +4928.570000  +3696.430000  +3107.140000  +2785.710000  +2678.570000  +2625.000000  +2625.000000  +2571.430000

#
# Alt: 20000
  +7446.430000  +7446.430000  +3910.710000  +2892.860000  +2625.000000  +2357.140000  +2250.000000  +2142.860000  +2142.860000  +2196.430000

#
# Alt: 25000
  +5946.430000  +5946.430000  +3267.860000  +2410.710000  +2035.710000  +1875.000000  +1821.430000  +1714.290000  +1714.290000  +1714.290000

#
# Alt: 30000
  +4767.860000  +4767.860000  +2678.570000  +1875.000000  +1553.570000  +1500.000000  +1446.430000  +1392.860000  +1392.860000  +1392.860000

#
# Alt: 35000
  +3589.290000  +3589.290000  +2089.290000  +1339.290000  +1071.430000  +1125.000000  +1071.430000  +1071.430000  +1071.430000  +1071.430000

#
# Alt: 40000
  +2410.710000  +2410.710000  +1500.000000   +803.570000   +589.290000   +750.000000   +696.430000   +750.000000   +750.000000   +750.000000

#-----------------------------------------------------
#    ROLL DATA
#-----------------------------------------------------
#    ALPHA BREAKPOINTS
5 # Num ALPHA
   -10   0   10   20   30
#
7 # DYNAMIC PRESSURE BREAKPOINTS
   0   100   200   300   400   500   600
#-----------------------------------------------------
#     RCMDMX - PEAK ROLL RATE
#-----------------------------------------------------
1   # Table Multiplier

# ALPHA -10
 0.00 30.00 30.00 30.00 30.00 30.00 30.00
#
# ALPHA 0
 0.00 30.00 60.00 60.00 60.00 60.00 60.00
#
# ALPHA 10
 0.00 30.00 30.00 30.00 30.00 30.00 30.00
#
# ALPHA 20
 0.00 10.00 20.00 20.00 20.00 20.00 20.00
#
# ALPHA 30
 0.00 10.00 10.00 10.00 10.00 10.00 10.00
#
# End Of Roll Data
#
#-----------------------------------------------------
# LIMITERS
#-----------------------------------------------------
17   # Number of limiters
# Type Key Values
#
# Neg G Limiter
0 0     250.0     -3.0     100.0     0.0
# Pos G Limiter (Cat I)
3 1     15.0     9.0     20.4     7.3     25.0     1.0
# Roll Rate Limiter
0 2     15.0     1.0     29.0     0.0
# Yaw Alpha Limiter
0 3     14.0     1.0     26.0     0.0
# Yaw Roll Rate Limiter
0 4     20.0     1.0     360.0     0.0
# Cat III Command Type
0 5     100.0     7.0     420.0     15.0
# Cat III AOA Limiter
1 6     17.0
# Cat III Roll Rate Limiter
2 7     0.6
# Cat III Yaw Alpha Limiter
0 8     3.0     1.0     15.0     0.0
# Cat III Yaw Roll Rate Limiter
0 9     20.0     1.0     180.0     0.0
# Pitch and Yaw Control Damper
3 10     0.00     0.50     15.00     1.00     50.00     2.00
# Roll Control Damper
3 11     0.00     0.60     15.00     0.85     50.00     1.00
# Command Type
1 12     15
# Low Speed Omega
3 13     0.01     0.10     40.00     0.80     60.00     1.00
# Stores Drag
0 14     0.9     0.000100     1.0     0.000283
# Cat III Max Gs
1 16     1.0
# AOA Limiter
1 17     20.0
#-----------------------------------------------------
# Vapor data
#-----------------------------------------------------
0   #Total Number of vapor chains - MUST MATCH THE REAL NUMBER OF CHAINS DEFINED LATER OR YOU'LL GET CTDs!
#
#		              POSITION				  SIZE					   TIME/ALPHA				   OTHER	
#	startX  startY  startZ  endX	endY	endZ	Init	Growth	RandPos t1	a1	t2	a2	t3	a3	t4	a4	LEVEL	PSID
#
#-----------------------------------------------------
# ADDITIONAL DATA
#-----------------------------------------------------
#
#-----------------------------------------------------
# Aircraft
#-----------------------------------------------------
typeAC 0
isComplex 0
#-----------------------------------------------------
# Engine
#-----------------------------------------------------
typeEngine 0
nEngines 4
engine1Location -23.50 -59.40 -0.60
engine2Location -3.90 -33.30 -0.20
engine3Location -3.90 33.30 -0.20
engine4Location -23.50 59.40 -0.60
engineSmokes 0
normSpoolRate 2.0
abSpoolRate 2.0
nozzleMil 0.00
LGIdle 0
jfsStartUpTime 15
jfsSpoolUpRate 15.0
jfsSpoolUpLimit 0.25
lightupSpoolRate 10.0
flameoutSpoolRate 35.0
jfsRechargeTime 60
jfsMinRechargeRpm 0.12
jfsSpinTime 240
FTITStart 6.100
FTITIdle 5.100
FTITMax 7.600
FTITAB 7.623
mainGenRpm 0.63
stbyGenRpm 0.60
epuBurnTime 600
DeepStallEngineStall 0
engineDamageStopThreshold 13
engineDamageNoRestartThreshold 50
engineDamageHitThreshold 0
complexnozzle 0
animExhNozIdle 0.0
animExhNozMil 10.0
animExhNozMax 5.0
animExhNozAB 0.0
animExhNozABMax 15.0
animExhNozRate 5.0
PropEngineSwitchStates 0
animEngineRPMMult 1000
HeatBlurShift -7
hasReverseThrust 0
ReverseThrustFactor 0.0
minReverseThrustSpeed 0
animReverseAngle 0
animReverseRate 0.0
#-----------------------------------------------------
# JetBlast data
#-----------------------------------------------------
WakeFactor 1.0
WakeAngle 5.00
WakeRange 800
#-----------------------------------------------------
# Flight Dynamics
#-----------------------------------------------------
area2Span 0.0759
pitchMomentum 1.30
rollMomentum 1.30
yawMomentum 1.30
pitchElasticity 1.00
gearPitchFactor 0.00
pitchGearGain 1.00
rollGearGain 1.00
yawGearGain 1.00
AFMcriticalAOA 0.0
#-----------------------------------------------------
# Controls
#-----------------------------------------------------
elevonMaxAngle 40.0
aileronMaxAngle 40.0
rudderMaxAngle 40.0
rollCouple -0.09
elevatorRoll 0
elevRate 60
animAileronRate 45
rudderRate 120
animSpoiler1Max 0
animSpoiler1Rate 45.0
animSpoiler1OffAtWingSweep 70.0
animSpoiler1AirBrake 0
animSpoiler2Max 0
animSpoiler2Rate 45.0
animSpoiler2OffAtWingSweep 70.0
animSpoiler2AirBrake 0
#-----------------------------------------------------
# Trim
#-----------------------------------------------------
pitchElevatorTrimRate 0.05
pitchAileronTrimRate 0.05
pitchRudderTrimRate 0.25
trimDeadZonePercentage 0.05
#-----------------------------------------------------
# Flaps
#-----------------------------------------------------
hasFlapperons 0
flapGearRelative 0
maxFlapVcas 170
flapVcasRange 20
flap2Nozzle 0
#-----------------------------------------------------
# Lef (Slats)
#-----------------------------------------------------
haslef 0
lefGround -2.0
lefMaxAngle 20.0
lefMaxMach 0.40
lefNStages 1
CDlefFactor 0.00
lefRate 5
#-----------------------------------------------------
# Tef (Flaps)
#-----------------------------------------------------
hasTef 1
tefMaxAngle 50.0
CLtefFactor 0.05
CDtefFactor 0.05
tefNStages 5
tefTakeoff 30.0
tefRate 5
NoTefSound 0
#-----------------------------------------------------
# Air-Brakes
#-----------------------------------------------------
CDSPDBFactor 0.080
airbrakeMaxAngle 60
airbrakeOutRateFactor 0.500000
airbrakeInRateFactor 0.166667
airbrakeApproachAngle -1 #Added Falcas
minAirbrakeSpeed -1
#-----------------------------------------------------
# Drag Chute
#-----------------------------------------------------
dragChuteCd 0.000
dragChuteMaxSpeed 170
dragChuteDropSpeed 90 #Added Falcas
dragChuteMinRunwayLength 0 #Added Falcas
dragChuteDelay 2.0 #Added Falcas
#-----------------------------------------------------
# Gear and NWS
#-----------------------------------------------------
CDLDGFactor 0.040
sinkRate 15
MLGWOWPercentage 0.90
NLGWOWPercentage 0.50
NWSRateUp 1.5
NWSRateDown 4.0
animWheelRadius1 0.00
animWheelRadius2 0.00
animWheelRadius3 0.00
animWheelRadius4 0.00
animWheelRadius5 0.00
animWheelRadius6 0.00
animWheelRadius7 0.00
animWheelRadius8 0.00
animGearMaxComp1 0.00
animGearMaxComp2 0.00
animGearMaxComp3 0.00
animGearMaxComp4 0.00
animGearMaxComp5 0.00
animGearMaxComp6 0.00
animGearMaxComp7 0.00
animGearMaxComp8 0.00
animGearMaxExt1 0.00
animGearMaxExt2 0.00
animGearMaxExt3 0.00
animGearMaxExt4 0.00
animGearMaxExt5 0.00
animGearMaxExt6 0.00
animGearMaxExt7 0.00
animGearMaxExt8 0.00
animGearInverted 0
GearDofRate1 0.60 #Added Falcas 01/13/1014
GearDofRate2 0.60
GearDofRate3 0.60
GearDofRate4 0.60
GearDofRate5 0.60
GearDofRate6 0.60
GearDofRate7 0.60
GearDofRate8 0.60
GearDelayDown1 1.50 #Added Falcas 01/13/1014
GearDelayDown2 1.50
GearDelayDown3 1.50
GearDelayDown4 1.50
GearDelayDown5 1.50
GearDelayDown6 1.50
GearDelayDown7 1.50
GearDelayDown8 1.50
GearDelayUp1 0.00 #Added Falcas 01/13/1014
GearDelayUp2 0.00
GearDelayUp3 0.00
GearDelayUp4 0.00
GearDelayUp5 0.00
GearDelayUp6 0.00
GearDelayUp7 0.00
GearDelayUp8 0.00
DoorDofRate1 0.60 #Added Falcas 01/13/1014
DoorDofRate2 0.60
DoorDofRate3 0.60
DoorDofRate4 0.60
DoorDofRate5 0.60
DoorDofRate6 0.60
DoorDofRate7 0.60
DoorDofRate8 0.60
DoorDelayDown1 0.00 #Added Falcas 01/13/1014
DoorDelayDown2 0.00
DoorDelayDown3 0.00
DoorDelayDown4 0.00
DoorDelayDown5 0.00
DoorDelayDown6 0.00
DoorDelayDown7 0.00
DoorDelayDown8 0.00
DoorDelayUp1 1.50 #Added Falcas 01/13/1014
DoorDelayUp2 1.50
DoorDelayUp3 1.50
DoorDelayUp4 1.50
DoorDelayUp5 1.50
DoorDelayUp6 1.50
DoorDelayUp7 1.50
DoorDelayUp8 1.50
#-----------------------------------------------------
# Hook
#-----------------------------------------------------
hookTipLocation 0.00 0.00 0.00
animHookAngle 0.0
animHookRate 0.0
#-----------------------------------------------------
# Wing fold
#-----------------------------------------------------
animWingFoldAngle 0
animWingFoldRate 0.0
#-----------------------------------------------------
# Canopy
#-----------------------------------------------------
canopyMaxAngle 20
canopyOpenRate 5.0
canopyCloseRate 5.0
canopyMaxSpeed 70
#-----------------------------------------------------
# Fuel
#-----------------------------------------------------
fuelGaugeMultiplier 10.0
fuelFlowFactorNormal 0.507
fuelFlowFactorAb 0.507
minFuelFlow 1200
fuelFwdRes 0
fuelAftRes 0
fuelFwd1 0
fuelFwd2 0
fuelAft1 0
fuelWingAl 0
fuelWingFr 0
fuelFwdResRate 0.000
fuelAftResRate 0.000
fuelFwd1Rate 0.000
fuelFwd2Rate 0.000
fuelAft1Rate 0.000
fuelWingAlRate 0.000
fuelWingFrRate 0.000
fuelClineRate 0.000
fuelWingExtRate 0.000
fuelMinFwd 400
fuelMinAft 250
#-----------------------------------------------------
# Air-Air Refuel
#-----------------------------------------------------
receiverRefuelServiceType 0 #Added Falcas 01/21/2014
refuelLocation 0.00 0.00 0.00
refuelSpeed 200
refuelAltitude 17000
refuelRate 100
AIBoomDistance 50
decelDistance 2500
desiredClosureFactor 0.35
longLeg 60
shortLeg 45
IL78Factor 0.0
animRefuelAngle 0.0
animRefuelRate 0.0
#-----------------------------------------------------
# Avionics
#-----------------------------------------------------
avionicsCanUseSpice 0
avionicsJDAMAvionicsType 0
avionicsDiffICPStyle 0
avionicsMLUPFL 0
avionicsDatalink 0
avionicsHudLadderTapeType 0
avionicsHudVAHTapeType 0
avionicsHudDGFTDefaultMode 0
avionicsDGFTMasterModeLabelOnHud 0
avionicsDGFTAttitudeAwareness 1
avionicsMLUM2TAOnHUD 1
avionicsHudAATargetAspectAngle 1
avionicsHudOlderMasterModeWindow 0
avionicsNewAMRAAMdlz 1
avionicsBullseyeOnHud 1
avionicsDEDHudRepeaterBlanksOnDGFT 1
avionicsHudNavDeclutterEnabled 1
avionicsHudNavSpdAltTapesLag 0
avionicsZenithNadirOnHud 1
avionicsGhostHorizonAwareness 1
avionicsEPAFRadarCues 1
avionicsRadarJamChevrons 1
avionicsColorMfd 1
avionicsGrayScaleGM 1
avionicsActivateMFDBoot 0
avionicsMMCUpgrade 1
avionicsEGIUpgrade 1
avionicsDigitalFLCS 1
avionicsRWRType 0
avionicsGunEEGSMode 1
avionicsGunSSLCMode 1
avionicsGunLCOSMode 1
avionicsGunSNAPMode 1
avionicsEngineType 0
avionicsMfdCataSymbolAim120 0
avionicsHudOldBAIType 0
avionicsCursorEnableAsToggle 0
avionicsMaverickHandoffCapeable 0
#-----------------------------------------------------
# Autopilot
#-----------------------------------------------------
maxAutopilotMach 0.95
#-----------------------------------------------------
# Locations
#-----------------------------------------------------
PilotEyePos 0.00 0.00 0.00
wingTipLocation 0.00 0.00 0.00
#-----------------------------------------------------
# Counter measure
#-----------------------------------------------------
hasEWS 0
ecmStrength 0.000
nChaff 30
nFlare 60
FlareDispensers 1
FlareSeq 0
FlarePos1 0.00 0.00 0.00
FlareVec1 0.00 0.00 0.00
FlareCount1 0
ChaffDispensers 1
ChaffSeq 0
ChaffPos1 0.00 0.00 0.00
ChaffVec1 0.00 0.00 0.00
ChaffCount1 0
#-----------------------------------------------------
# Hardpoint data
#-----------------------------------------------------
hardpoint1Grp 0
hardpoint2Grp 0
hardpoint3Grp 0
hardpoint4Grp 0
hardpoint5Grp 0
hardpoint6Grp 0
hardpoint7Grp 0
hardpoint8Grp 0
hardpoint9Grp 0
hardpoint10Grp 0
hardpoint11Grp 0
hardpoint12Grp 0
hardpoint13Grp 0
hardpoint14Grp 0
hardpoint15Grp 0
hardpoint16Grp 0
#-----------------------------------------------------
# Sounds
#-----------------------------------------------------
sndExternalVol -2000
sndSpdBrakeStart 141
sndSpdBrakeLoop 140
sndSpdBrakeEnd 139
sndSpdBrakeWind 142
sndOverSpeed1 191
sndOverSpeed2 192
sndGunStart 25
sndGunLoop 26
sndGunEnd 27
sndBBPullup 68
sndBBBingo 66
sndBBWarning 63
sndBBCaution 64
sndBBBeeps 301
sndBBChaffFlareLow 184
sndBBFlare 138
sndBBChaffFlare 183
sndBBChaffFlareOut 185
sndBBAltitude 65
sndBBLock 67
sndTouchDown 42
sndWheelBrakes 132
sndDragChute 218
sndLowSpeed 167
sndFlapStart 145
sndFlapLoop 144
sndFlapEnd 143
sndHookStart 195
sndHookLoop 194
sndHookEnd 193
sndGearCloseStart 147
sndGearCloseEnd 146
sndGearOpenStart 149
sndGearOpenEnd 150
sndGearLoop 148
sndCanopyOpenStart 271
sndCanopyOpenLoop 275
sndCanopyOpenEnd 272
sndCanopyCloseStart 273
sndCanopyCloseLoop 361
sndCanopyCloseEnd 274
sndEject 5
sndWind 33
sndBattery 304
sndRadioBuzz 305
sndJFSStart 288
sndJFSLoop 289
sndJFSEnd 290
sndJFSStartInt 306
sndJFSLoopInt 307
sndJFSendInt 308
#-----------------------------------------------------
# Sounds Engine Ext
#-----------------------------------------------------
sndAbExt 243
#
sndExt 243
#
sndExt2 276
#
sndExt3 0
#-----------------------------------------------------
# Sounds Engine Int
#-----------------------------------------------------
sndInt 34
#
sndInt2 278
#
sndInt3 303
#
sndAbInt 40
#
sndAbInt2 297
#-----------------------------------------------------
# Sounds Aero
#-----------------------------------------------------
sndAero1 0
#
sndAero2 0
#
sndAero3 0
#
sndAero4 0
#-----------------------------------------------------
# AI behaviour
#-----------------------------------------------------
rollLimitForAiInWP 30
followRate 20
BingoReturnDistance 100
jokerFactor 5.0
bingoFactor 5.0
fumesFactor 12.0
largePark 1
minTakeoffRunwayLengthClean -1 #Added Falcas
minTakeoffRunwayLengthMTOW -1 #Added Falcas
optTakeoffPitch 9.0 #Added Falcas
gearRetractAlt 50 #Added Falcas
maxClimbPitch 15.0 #Added Falcas
optClimbSpeed 300 #Added Falcas
optClimbMach 0.80 #Added Falcas
minClimbRate 1500 #Added Falcas
descentPath -1.0 #Added Falcas
landingAOA 4.0
aiLandingOffset 0 #Added Falcas
MinTGTMAR 0
MaxMARIdedStart 0
AddMARIded5k 0
AddMARIded18k 0
AddMARIded28k 0
AddMARIdedSpike 0
MaxWEZtaStart 0
IsShortBurnThreat 0
IsLongBurnThreat 0
#-----------------------------------------------------
# Missions
#-----------------------------------------------------
misTypeCapability 41 100 100 100 100 100 100 100 100 100 100 100 100 100 100 100 100 100 100 100 100 100 100 100 100 100 100 100 100 100 100 100 100 100 100 100 100 100 100 100 100 100
#-----------------------------------------------------
# TFR
#-----------------------------------------------------
Has_TFR 0
Has_OnboardTFR 0
PID_K 0.6
PID_KI 0.0
PID_KD 0.3
TFR_LimitMX 0.0
TFR_Corner 420
TFR_Gain 0.010
EVA_Gain 15.0 #10-12-2014
TFR_MaxRoll 60
TFR_SoftG 2.0
TFR_MedG 2.0
TFR_HardG 2.0
TFR_Clearance 20
SlowPercent 0
TFR_lookAhead 7000 #10-12-2014
EVA1_SoftFactor 0.6
EVA2_SoftFactor 0.5
EVA1_MedFactor 0.6
EVA2_MedFactor 0.5
EVA1_HardFactor 0.6
EVA2_HardFactor 0.5
TFR_GammaCorrMult 1.5 #10-12-2014
#-----------------------------------------------------
# TGP
#-----------------------------------------------------
Has_TGP 0 #Falcas, Needs to be removed from file later on.
Has_OnboardTGP 0 #Falcas, Needs to be removed from file later on.
#Switch: 0 - No TGP, 1 - Internal TGP, 2 - External on AC, 3 - External on HP
TGP_Type 0 #Added Falcas 14/06/2014
TGP_PodWeight 0.0
TGP_PodDrag 0.0
#Switch: 0 - none, 1 - left, 2 - right
TGP_PodPowerSwitch 0
TGP_PodPosX 0.00
TGP_PodPosY 0.00
TGP_PodPosZ 0.00
#-----------------------------------------------------
# HTS
#-----------------------------------------------------
Has_HTS 0
Has_OnboardHTS 0
HTS_PodWeight 0.0
HTS_PodDrag 0.0
#Switch: 0 - none, 1 - left, 2 - right
HTS_PodPowerSwitch 0
HTS_PodPosX 0.00
HTS_PodPosY 0.00
HTS_PodPosZ 0.00
#-----------------------------------------------------
# Lantirn
#-----------------------------------------------------
Has_LANTIRN 0
Has_OnboardLANTIRN 0
LANTIRN_PodWeight 0.0
LANTIRN_PodDrag 0.0
#Switch: 0 - none, 1 - left, 2 - right
LANTIRN_PodPowerSwitch 1
LANTIRN_PodPosX 0.00
LANTIRN_PodPosY 0.00
LANTIRN_PodPosZ 0.00
LantirnCameraX 10.00
LantirnCameraY 2.00
LantirnCameraZ 5.00
#-----------------------------------------------------
# Gun
#-----------------------------------------------------
gunLocation 2.00 -2.00 0.00
gunTrailID 11
GunEffect 5900
gunPitch 0.00
gunYaw 0.00
canDoGunStrafe 0
#-----------------------------------------------------
# Weapons
#-----------------------------------------------------
A2GHarmAlt 20000
A2GAGMAlt 8000
A2GGBUAlt 20000
A2GDumbHDAlt 1500
A2GClusterAlt 14000
A2GDumbLDAlt 16000
A2GGunRocketAlt 3500
A2GCameraAlt 12000
A2GBombMissileAlt 20000
A2GIAMBombAlt 20000
maxRippleCount 0
maxLoadoutDrag 41 -1 -1 -1 -1 -1 -1 -1 -1 -1 -1 -1 -1 -1 -1 -1 -1 -1 -1 -1 -1 -1 -1 -1 -1 -1 -1 -1 -1 -1 -1 -1 -1 -1 -1 -1 -1 -1 -1 -1 -1 -1
maxLoadoutWeight 41 100 100 100 100 100 100 100 100 100 100 100 100 100 100 100 100 100 100 100 100 100 100 100 100 100 100 100 100 100 100 100 100 100 100 100 100 100 100 100 100 100
minNumFuelTanks 41 0 0 0 0 0 0 0 0 0 0 0 0 0 0 0 0 0 0 0 0 0 0 0 0 0 0 0 0 0 0 0 0 0 0 0 0 0 0 0 0 0
extTanksLoadOrder 1
loadRadarGuidedFirst 0 #Added Falcas
#-----------------------------------------------------
# Rockets
#-----------------------------------------------------
rktAltIsAgl 0
rktHighAlt 3000
rktPreferedAlt 2000
rktLowAlt 1000
rktEmergencyAlt 700
rktFireRange 10000
rktPopupRange -1
rktPopupAlt 0
#-----------------------------------------------------
# ARMs
#-----------------------------------------------------
maxNumARMs 0
#-----------------------------------------------------
# Camera View TopGun
#-----------------------------------------------------
TopGunCamera1 7   -2.00  -19.00   -1.50   +0.00  +80.00   +0.00  60.0 #Left wing looking towards cockpit. (Revientor)
TopGunCamera2 7  -21.00  +13.00   -2.00   +0.00 +120.00   +0.00  60.0
TopGunCamera3 7  +13.50   +0.00   +6.50   -2.00 -180.00   +0.00  60.0
TopGunCamera4 7  +30.00   +0.00   -9.00  -13.00 +180.00   +0.00  47.0
#-----------------------------------------------------
# Lights
#-----------------------------------------------------
animStrobeOnTime 0.020
animStrobeOffTime 1.000
animWingFlashOnTime 0.030
animWingFlashOffTime 1.500
numFormationLightLevels 0
#-----------------------------------------------------
# Spot Lights
#-----------------------------------------------------
#-----------------------------------------------------
# Additionals that are not included in FMM.
#-----------------------------------------------------

#
# End of Additional
#
END OF DATA