# Title: Su-35 Flanker E
# Author: BMS
# Revision: Flight Model Manager ver:1.7.1.15 Date: 5/30/2015 11:39:34
#-----------------------------------------------------
# Comments
#-----------------------------------------------------
#MODIF MAV-JP / STORE LIMITER / TO BE USED WITH ASSOCIATED WCD
#MODIF Falcas GearPos / TGP-HTS / HasOldLandingLight
#MODIF Falcas 01/11/2011
#
#-----------------------------------------------------
# SIMULATION INPUT PANEL
#-----------------------------------------------------
#
#-----------------------------------------------------
# INPUT MASS AND GEOMETRIC PROPERTIES
#-----------------------------------------------------
         +40572.000000  # Empty Weight (lbs)
           +667.000000  # Reference Area
         +29547.000000  # Internal Fuel
#-----------------------------------------------------
# ANGLE OF ATTACK AND SIDESLIP LIMITS
#-----------------------------------------------------
            +30.000000  # AOA Max
            -10.000000  # AOA Min
            +20.000000  # Beta Max
            -20.000000  # Beta Min
             +9.000000  # Max G
           +190.000000  # Max Roll
           +250.000000  # Min Vcas
          +1200.000000  # Max Vcas
           +420.000000  # Corner Vcas
            +10.000000  # Theta Max
             +3.000000  # Num Gear
#
#Gear    xPos [ft]          yPos [ft]         zPos [ft]         Extent [deg]
         +26.80         +0.00         +6.60         +100.00
         +46.20         -7.50         +6.60         +100.00
         +46.20         +7.50         +6.60         +100.00
#-----------------------------------------------------
# Physical data
#-----------------------------------------------------
            +36.600000  # CG Loc
            +67.000000  # Length
            +48.000000  # Span
             +2.700000  # Fus Radius
             +9.500000  # Tail Ht
#
# End of Airframe data
#
#
#     BASIC AERODYNAMIC COEFFICIENTS
#
#
#-----------------------------------------------------
#     MACH BREAKPOINTS
#-----------------------------------------------------
+9.000000  # Num MACH
#
  +0.000000  +0.200000  +0.300000  +0.800000  +0.900000  +1.000000  +1.100000  +1.400000  +2.500000
#-----------------------------------------------------
#     ALPHA BREAKPOINTS
#-----------------------------------------------------
+13.000000  # Num Alpha
#
 -20.000000 -10.000000  -5.000000  +0.000000  +0.330000  +5.000000 +10.000000 +15.000000 +20.000000 +25.000000
 +30.000000 +35.000000 +40.000000
#-----------------------------------------------------
#     LIFT COEFFICIENT  CL
#-----------------------------------------------------
+1.000000   # Table Multiplier
#
# Mach: 0
  -1.271000  -0.880900  -0.467500  -0.030900  +0.000000  +0.459300  +0.951600  +1.280700  +1.464400  +1.613600
  +1.777200  +1.887200  +1.849600
#
# Mach: 0.2
  -1.272300  -0.881800  -0.468000  -0.030900  +0.000000  +0.459700  +0.952600  +1.282000  +1.465900  +1.615200
  +1.779100  +1.889200  +1.851500
#
# Mach: 0.3
  -1.272300  -0.881800  -0.468000  -0.030900  +0.000000  +0.459700  +0.952600  +1.282000  +1.465900  +1.615200
  +1.779100  +1.889200  +1.851500
#
# Mach: 0.8
  -1.277400  -0.885300  -0.469900  -0.031000  +0.000000  +0.461600  +0.956300  +1.287100  +1.471800  +1.621700
  +1.786100  +1.896700  +1.858800
#
# Mach: 0.9
  -1.295600  -0.897900  -0.476600  -0.031500  +0.000000  +0.452300  +0.970000  +1.305500  +1.492700  +1.644800
  +1.811600  +1.923700  +1.885300
#
# Mach: 1
  -1.304500  -0.904100  -0.479800  -0.031700  +0.000000  +0.471300  +0.976600  +1.314400  +1.503000  +1.656100
  +1.824000  +1.936900  +1.898300
#
# Mach: 1.1
  -1.274600  -0.883400  -0.468900  -0.031000  +0.000000  +0.460600  +0.954300  +1.284300  +1.468600  +1.618100
  +1.782300  +1.892600  +1.854800
#
# Mach: 1.4
  -1.274300  -0.883200  -0.468800  -0.031000  +0.000000  +0.460500  +0.954100  +1.284100  +1.468300  +1.617800
  +1.781900  +1.892200  +1.854400
#
# Mach: 2.5
  -1.273400  -0.883400  -0.468400  -0.030900  +0.000000  +0.460100  +0.953300  +1.283100  +1.467200  +1.616600
  +1.780500  +1.890800  +1.853000
#
#-----------------------------------------------------
#     DRAG COEFFICIENT  CD
#-----------------------------------------------------
+0.666660   # Table Multiplier
#
# Mach: 0
  +0.360200  +0.158000  +0.059400  +0.027800  +0.024467  +0.049067  +0.142600  +0.265667  +0.393667  +0.559867
  +0.799800  +1.049870  +1.275600
#
# Mach: 0.2
  +0.360200  +0.158000  +0.059400  +0.027800  +0.024467  +0.049067  +0.142600  +0.265667  +0.393667  +0.559867
  +0.799800  +1.049870  +1.275600
#
# Mach: 0.3
  +0.360200  +0.158000  +0.059400  +0.027800  +0.024467  +0.049067  +0.142600  +0.265667  +0.393667  +0.559867
  +0.799800  +1.049870  +1.275600
#
# Mach: 0.8
  +0.374600  +0.164400  +0.061667  +0.028867  +0.025467  +0.051000  +0.148267  +0.276267  +0.409467  +0.582267
  +0.831800  +1.091870  +1.326670
#
# Mach: 0.9
  +0.389000  +0.170667  +0.064067  +0.030000  +0.026467  +0.053000  +0.154000  +0.286867  +0.425200  +0.604667
  +0.863800  +1.133870  +1.377670
#
# Mach: 1
  +0.547467  +0.240200  +0.090200  +0.042200  +0.037267  +0.074600  +0.216800  +0.403800  +0.598467  +0.851000
  +1.215670  +1.595870  +1.939000
#
# Mach: 1.1
  +0.855800  +0.375467  +0.141000  +0.066000  +0.058267  +0.086600  +0.238867  +0.631200  +0.935467  +1.330200
  +1.900270  +2.494670  +3.030870
#
# Mach: 1.4
  +0.700200  +0.307200  +0.115400  +0.054000  +0.047667  +0.075400  +0.217200  +0.516400  +0.765400  +1.088400
  +1.554800  +2.041070  +2.479800
#
# Mach: 2.5
  +0.189600  +0.189600  +0.071200  +0.033267  +0.029400  +0.058867  +0.171067  +0.318800  +0.472467  +0.671800
  +0.959667  +1.259800  +1.530600
#
#-----------------------------------------------------
#     SIDE FORCE DERIVATIVE CY-BETA
#-----------------------------------------------------
+1.000000   # Table Multiplier
#
# Mach: 0
  -0.011000  -0.010900  -0.016600  -0.018200  -0.018270  -0.019200  -0.018700  -0.016300  -0.017600  -0.016400
  -0.015800  -0.014100  -0.009000
#
# Mach: 0.2
  -0.011000  -0.010900  -0.014600  -0.014200  -0.014700  -0.014800  -0.015000  -0.014400  -0.011000  -0.010800
  -0.012000  -0.011200  -0.010800
#
# Mach: 0.3
  -0.011000  -0.010900  -0.014600  -0.014200  -0.014700  -0.014800  -0.015000  -0.014400  -0.011000  -0.010800
  -0.012000  -0.011200  -0.010800
#
# Mach: 0.8
  -0.011000  -0.010900  -0.014600  -0.014200  -0.014700  -0.014800  -0.015000  -0.014400  -0.011000  -0.010800
  -0.012000  -0.011200  -0.010800
#
# Mach: 0.9
  -0.016000  -0.012200  -0.021000  -0.028000  -0.028040  -0.028600  -0.030000  -0.025000  -0.026700  -0.022300
  -0.021500  -0.018700  -0.017200
#
# Mach: 1
  -0.017000  -0.017200  -0.027000  -0.033000  -0.033130  -0.035000  -0.033300  -0.032100  -0.028800  -0.025400
  -0.023100  -0.020700  -0.018800
#
# Mach: 1.1
  -0.017200  -0.017300  -0.027200  -0.033500  -0.033630  -0.035500  -0.033800  -0.032600  -0.029200  -0.026000
  -0.024000  -0.021000  -0.020000
#
# Mach: 1.4
  -0.016960  -0.017060  -0.025530  -0.030480  -0.030610  -0.032500  -0.031190  -0.030200  -0.027550  -0.024820
  -0.022690  -0.019780  -0.017960
#
# Mach: 2.5
  -0.016100  -0.016200  -0.019400  -0.019400  -0.019540  -0.021500  -0.021600  -0.021400  -0.021500  -0.020500
  -0.017900  -0.015300  -0.010500
#
# End of Aero Data
#
#-----------------------------------------------------
# PROPULSION DATA
#-----------------------------------------------------
#
      +2.000000   # Thrust multiplier
      +0.600000   # Fuel Flow Multiplier
#-----------------------------------------------------
# MACH BREAKPOINTS
#-----------------------------------------------------
+13.000000  # Number of Mach Breaks
#
  +0.000000  +0.200000  +0.400000  +0.600000  +0.800000  +1.000000  +1.200000  +1.400000  +1.600000  +1.800000
  +2.000000  +2.400000  +2.500000
#-----------------------------------------------------
#     ALTITUDE BREAKPOINTS
#-----------------------------------------------------
+8.000000  # Number of Alt Break Points
#
  +0.000000 +10000.000000 +20000.000000 +30000.000000 +36000.000000 +40000.000000 +50000.000000 +70000.000000
#
#-----------------------------------------------------
#    THRST1 - THRUST AT IDLE (THROTL = 0.00)
#-----------------------------------------------------
# Alt: 0
     +0.000000   -800.000000  -1700.000000  -2200.000000  -3300.000000  -4000.000000  -4900.000000  -5900.000000  -6700.000000  -7700.000000
  -8600.000000 -10800.000000 -10800.000000
#
# Alt: 10000
     +0.000000   -400.000000  -1100.000000  -1650.000000  -2250.000000  -2800.000000  -3450.000000  -4050.000000  -4600.000000  -5100.000000
  -5750.000000  -7400.000000  -7400.000000
#
# Alt: 20000
     +0.000000   -370.000000   -740.000000  -1100.000000  -1480.000000  -1850.000000  -2230.000000  -2550.000000  -2900.000000  -3330.000000
  -3700.000000  -4625.000000  -4625.000000
#
# Alt: 30000
     +0.000000   -230.000000   -450.000000   -690.000000   -920.000000  -1150.000000  -1380.000000  -1600.000000  -1850.000000  -2075.000000
  -2300.000000  -2880.000000  -2880.000000
#
# Alt: 36000
     +0.000000   -160.000000   -340.000000   -500.000000   -675.000000   -850.000000  -1000.000000  -1190.000000  -1360.000000  -1520.000000
  -1700.000000  -2125.000000  -2125.000000
#
# Alt: 40000
     +0.000000   -140.000000   -275.000000   -415.000000   -550.000000   -690.000000   -835.000000   -975.000000  -1115.000000  -1250.000000
  -1390.000000  -1740.000000  -1740.000000
#
# Alt: 50000
     +0.000000    -80.000000   -170.000000   -255.000000   -345.000000   -430.000000   -515.000000   -600.000000   -690.000000   -775.000000
   -860.000000  -1075.000000  -1075.000000
#
# Alt: 70000
     +0.000000    -40.000000    -85.000000   -125.000000   -165.000000   -210.000000   -250.000000   -290.000000   -335.000000   -375.000000
   -420.000000   -525.000000   -525.000000
#-----------------------------------------------------
#    THRST2 - THRUST AT MIL POWER (THROTL = 1.00)
#-----------------------------------------------------
# Alt: 0
 +16779.000000 +15520.600000 +16107.800000 +17198.500000 +18037.400000 +18474.800000 +18000.000000 +18000.000000 +18000.000000 +18000.000000
 +18000.000000 +18000.000000 +18000.000000
#
# Alt: 10000
 +12500.400000 +11325.800000 +11158.000000 +12584.300000 +14262.200000 +14861.900000 +12000.000000 +10000.000000 +10000.000000 +10000.000000
 +10000.000000 +10000.000000 +10000.000000
#
# Alt: 20000
  +8389.500000  +7298.870000  +6711.600000  +8389.500000  +9647.920000 +11495.400000 +10900.000000 +10300.000000 +10000.000000 +10000.000000
 +10000.000000 +10000.000000 +10000.000000
#
# Alt: 30000
  +5872.650000  +5453.170000  +5033.700000  +5285.380000  +6292.130000  +6979.350000  +7100.000000  +6600.000000  +6600.000000  +6600.000000
  +6600.000000  +6000.000000  +6000.000000
#
# Alt: 36000
  +4194.750000  +4152.800000  +4068.910000  +4194.750000  +4614.230000  +5994.030000  +6100.000000  +5500.000000  +5500.000000  +5000.000000
  +5000.000000  +5000.000000  +5000.000000
#
# Alt: 40000
  +3355.800000  +3271.910000  +2936.320000  +3188.010000  +4110.850000  +4598.160000  +4444.000000  +4000.000000  +4000.000000  +4000.000000
  +4000.000000  +4000.000000  +4000.000000
#
# Alt: 50000
  +2097.380000  +2013.480000  +1988.310000  +2105.760000  +2516.850000  +2700.000000  +2200.000000  +2000.000000  +2000.000000  +2000.000000
  +2000.000000  +2000.000000  +2000.000000
#
# Alt: 70000
     +0.000000     +0.000000     +0.000000     +0.000000     +0.000000     +0.000000     +0.000000     +0.000000     +0.000000     +0.000000
     +0.000000     +0.000000     +0.000000
#-----------------------------------------------------
#    THRST3 - THRUST AT FULL AB (THROTL = 1.05)
#-----------------------------------------------------
# Alt: 0
 +27560.800000 +27285.200000 +28479.500000 +31419.300000 +33991.700000 +36865.000000 +38663.300000 +36000.000000 +35000.000000 +35000.000000
 +35000.000000 +35000.000000 +35000.000000
#
# Alt: 10000
 +20670.600000 +19568.200000 +20486.900000 +22967.300000 +26274.600000 +29222.300000 +31919.700000 +30000.000000 +29000.000000 +29000.000000
 +29000.000000 +29000.000000 +29000.000000
#
# Alt: 20000
 +13780.400000 +13596.700000 +13964.100000 +15893.400000 +18373.900000 +22478.700000 +25625.700000 +29042.400000 +27000.000000 +25000.000000
 +25000.000000 +25000.000000 +25000.000000
#
# Alt: 30000
  +8543.850000  +8268.240000  +9186.930000 +10289.400000 +12953.600000 +14656.100000 +19061.900000 +22478.700000 +24277.000000 +26974.400000
 +29222.300000 +26000.000000 +22000.000000
#
# Alt: 36000
  +8268.240000  +7533.290000  +7717.020000  +8543.850000  +9186.930000 +11688.900000 +14656.100000 +17982.900000 +22119.000000 +23377.800000
 +25176.100000 +27000.000000 +22000.000000
#
# Alt: 40000
  +5971.510000  +5420.290000  +5695.900000  +6522.720000  +6890.200000  +8991.470000 +11958.700000 +14835.900000 +17982.900000 +20140.900000
 +20320.700000 +23000.000000 +18000.000000
#
# Alt: 50000
  +4409.730000  +3766.640000  +4225.990000  +4474.040000  +4611.840000  +5484.790000  +6923.430000  +8451.980000  +9908.600000 +12318.300000
 +12857.800000 +11000.000000  +9000.000000
#
# Alt: 70000
     +0.000000     +0.000000     +0.000000     +0.000000     +0.000000     +0.000000     +0.000000     +0.000000     +0.000000     +0.000000
     +0.000000     +0.000000     +0.000000
#-----------------------------------------------------
#    ROLL DATA
#-----------------------------------------------------
#    ALPHA BREAKPOINTS
7 # Num ALPHA
   -10   0   10   20   30   60   90
#
7 # DYNAMIC PRESSURE BREAKPOINTS
   0   100   200   300   400   500   2000
#-----------------------------------------------------
#     RCMDMX - PEAK ROLL RATE
#-----------------------------------------------------
1   # Table Multiplier

# ALPHA -10
 0.00 142.86 200.00 214.29 242.86 242.86 228.57
#
# ALPHA 0
 0.00 200.00 257.14 271.43 300.00 300.00 285.71
#
# ALPHA 10
 0.00 142.86 200.00 214.29 242.86 242.86 228.57
#
# ALPHA 20
 0.00 71.43 128.57 142.86 157.14 157.14 142.86
#
# ALPHA 30
 0.00 7.14 64.29 78.57 107.14 107.14 92.86
#
# ALPHA 60
 0.00 0.00 7.14 21.43 50.00 50.00 35.71
#
# ALPHA 90
 0.00 0.00 0.00 0.00 0.00 0.00 0.00
#
# End Of Roll Data
#
#-----------------------------------------------------
# LIMITERS
#-----------------------------------------------------
17   # Number of limiters
# Type Key Values
#
# Neg G Limiter
0 0     250.0     -3.0     100.0     0.0
# Pos G Limiter (Cat I)
3 1     15.0     9.0     20.4     7.3     30.0     7.3
# Roll Rate Limiter
0 2     15.0     1.0     29.0     1.0
# Yaw Alpha Limiter
0 3     14.0     1.0     26.0     0.0
# Yaw Roll Rate Limiter
0 4     20.0     1.0     360.0     0.0
# Cat III Command Type
0 5     100.0     7.0     420.0     15.0
# Cat III AOA Limiter
1 6     17.0
# Cat III Roll Rate Limiter
2 7     0.6
# Cat III Yaw Alpha Limiter
0 8     3.0     1.0     15.0     0.0
# Cat III Yaw Roll Rate Limiter
0 9     20.0     1.0     180.0     0.0
# Pitch and Yaw Control Damper
3 10     0.00     0.30     15.00     0.85     50.00     1.00
# Roll Control Damper
3 11     0.00     0.60     15.00     0.85     50.00     1.00
# Command Type
1 12     17
# Low Speed Omega
3 13     0.01     0.10     40.00     0.80     60.00     1.00
# Stores Drag
0 14     0.9     0.000100     1.0     0.000283
# Cat III Max Gs
1 16     6.0
# AOA Limiter
1 17     30.0
#-----------------------------------------------------
# Vapor data
#-----------------------------------------------------
30   #Total Number of vapor chains - MUST MATCH THE REAL NUMBER OF CHAINS DEFINED LATER OR YOU'LL GET CTDs!
#
#		              POSITION				  SIZE					   TIME/ALPHA				   OTHER	
#	startX  startY  startZ  endX	endY	endZ	Init	Growth	RandPos t1	a1	t2	a2	t3	a3	t4	a4	LEVEL	PSID
# level 0
	+8.80	+6.40	-1.83	-22.00	+9.00	-4.00	+0.850	+0.2000	+1.000	+0.00	+0.90	+1.00	+0.60	+0.00	+0.00	+0.00	+0.00	+0	+1
# level 1
	-8.85	+7.28	-2.33	-24.00	+7.28	-4.50	+0.812	+0.2000	+1.000	+0.00	+0.70	+1.00	+0.60	+0.00	+0.00	+0.00	+0.00	+1	+1
	-2.37	+7.80	-2.33	-24.00	+7.80	-4.50	+0.812	+0.2000	+1.000	+0.00	+0.70	+1.00	+0.60	+0.00	+0.00	+0.00	+0.00	+1	+1
	-3.59	+8.73	-2.33	-24.00	+8.73	-4.50	+0.812	+0.2500	+1.000	+0.00	+0.90	+1.00	+0.60	+0.00	+0.00	+0.00	+0.00	+1	+1
	-3.20	+9.24	-2.33	-24.00	+9.24	-4.50	+0.812	+0.2500	+1.000	+0.00	+0.90	+1.00	+0.60	+0.00	+0.00	+0.00	+0.00	+1	+1
	-4.72	+9.75	-2.33	-24.00	+9.75	-4.50	+0.812	+0.2500	+1.000	+0.00	+0.90	+1.00	+0.60	+0.00	+0.00	+0.00	+0.00	+1	+1
	-4.43	+10.09	-2.33	-24.00	+10.09	-4.50	+0.812	+0.2500	+1.000	+0.00	+0.90	+1.00	+0.60	+0.00	+0.00	+0.00	+0.00	+1	+1
	-5.94	+10.52	-2.33	-24.00	+10.52	-4.50	+0.812	+0.2500	+1.000	+0.00	+0.90	+1.00	+0.60	+0.00	+0.00	+0.00	+0.00	+1	+1
	-5.26	+11.12	-2.33	-24.00	+11.12	-4.50	+0.812	+0.2500	+1.000	+0.00	+0.90	+1.00	+0.60	+0.00	+0.00	+0.00	+0.00	+1	+1
	-6.78	+11.72	-2.33	-24.00	+11.72	-4.50	+0.812	+0.2500	+1.000	+0.00	+0.90	+1.00	+0.60	+0.00	+0.00	+0.00	+0.00	+1	+1
	-6.30	+12.31	-2.33	-24.00	+12.32	-4.50	+0.812	+0.2500	+1.000	+0.00	+0.90	+1.00	+0.60	+0.00	+0.00	+0.00	+0.00	+1	+1
	-7.71	+12.82	-2.33	-24.00	+12.82	-4.50	+0.812	+0.2500	+1.000	+0.00	+0.90	+1.00	+0.60	+0.00	+0.00	+0.00	+0.00	+1	+1
	-7.33	+13.33	-2.33	-24.00	+13.33	-4.50	+0.812	+0.2500	+1.000	+0.00	+0.90	+1.00	+0.60	+0.00	+0.00	+0.00	+0.00	+1	+1
	-8.75	+13.93	-2.33	-24.00	+13.93	-4.50	+0.812	+0.2500	+1.000	+0.00	+0.90	+1.00	+0.60	+0.00	+0.00	+0.00	+0.00	+1	+1
	-8.36	+14.44	-2.33	-24.00	+14.44	-4.50	+0.812	+0.2500	+1.000	+0.00	+0.90	+1.00	+0.60	+0.00	+0.00	+0.00	+0.00	+1	+1
	-8.12	+14.86	-2.33	-24.00	+14.86	-4.50	+0.812	+0.2500	+1.000	+0.00	+0.90	+1.00	+0.60	+0.00	+0.00	+0.00	+0.00	+1	+1
	-8.60	+15.37	-2.33	-24.00	+15.37	-4.50	+0.812	+0.2500	+1.000	+0.00	+0.90	+1.00	+0.60	+0.00	+0.00	+0.00	+0.00	+1	+1
	-8.89	+15.88	-2.33	-24.00	+15.88	-4.50	+0.812	+0.2500	+1.000	+0.00	+0.90	+1.00	+0.60	+0.00	+0.00	+0.00	+0.00	+1	+1
	-9.38	+16.31	-2.33	-24.00	+16.31	-4.50	+0.812	+0.2500	+1.000	+0.00	+0.90	+1.00	+0.60	+0.00	+0.00	+0.00	+0.00	+1	+1
	-9.86	+16.89	-2.33	-24.00	+16.89	-5.50	+0.312	+0.2000	+1.000	+0.00	+0.70	+1.00	+0.60	+0.00	+0.00	+0.00	+0.00	+1	+1
	-10.64	+17.56	-2.33	-24.00	+17.56	-5.50	+0.312	+0.2000	+1.000	+0.00	+0.70	+1.00	+0.60	+0.00	+0.00	+0.00	+0.00	+1	+1
	-11.12	+18.15	-2.33	-24.00	+18.15	-5.50	+0.812	+0.2500	+1.000	+0.00	+0.90	+1.00	+0.60	+0.00	+0.00	+0.00	+0.00	+1	+1
	-11.70	+18.82	-2.33	-24.00	+18.82	-5.50	+0.812	+0.2500	+1.000	+0.00	+0.90	+1.00	+0.60	+0.00	+0.00	+0.00	+0.00	+1	+1
	-12.48	+19.50	-2.33	-24.00	+19.50	-5.50	+0.812	+0.2500	+1.000	+0.00	+0.90	+1.00	+0.60	+0.00	+0.00	+0.00	+0.00	+1	+1
	-13.06	+20.18	-2.33	-24.00	+20.18	-5.50	+0.812	+0.2500	+1.000	+0.00	+0.90	+1.00	+0.60	+0.00	+0.00	+0.00	+0.00	+1	+1
	-13.56	+20.86	-2.33	-24.00	+20.86	-5.50	+0.812	+0.2500	+1.000	+0.00	+0.90	+1.00	+0.60	+0.00	+0.00	+0.00	+0.00	+1	+1
# level 2
	-8.70	+6.40	-2.33	-24.00	+15.00	-5.00	+0.850	+0.2000	+1.000	+0.00	+0.90	+1.00	+0.60	+0.00	+0.00	+0.00	+0.00	+2	+1
	-8.60	+6.38	-2.30	-24.50	+15.05	-5.00	+0.850	+0.2000	+1.000	+0.00	+0.90	+1.00	+0.60	+0.00	+0.00	+0.00	+0.00	+2	+1
	+6.96	+8.00	-2.00	+3.90	+7.30	-2.20	+0.850	+0.2000	+1.000	+0.00	+0.90	+1.00	+0.60	+0.00	+0.00	+0.00	+0.00	+2	+1
	+6.00	+8.30	-2.00	+3.90	+7.83	-2.20	+0.850	+0.2000	+1.000	+0.00	+0.90	+1.00	+0.60	+0.00	+0.00	+0.00	+0.00	+2	+1
#
#-----------------------------------------------------
# ADDITIONAL DATA
#-----------------------------------------------------
#
#-----------------------------------------------------
# Aircraft
#-----------------------------------------------------
typeAC 0
isComplex 0
#-----------------------------------------------------
# Engine
#-----------------------------------------------------
typeEngine 0
nEngines 2
engine1Location -30.20 -3.70 0.70
engine2Location -30.20 3.40 0.70
engine3Location 0.00 0.00 0.00
engine4Location 0.00 0.00 0.00
engineSmokes 0
normSpoolRate 2.0
abSpoolRate 2.0
nozzleMil 0.00
LGIdle 0
jfsStartUpTime 15
jfsSpoolUpRate 15.0
jfsSpoolUpLimit 0.25
lightupSpoolRate 10.0
flameoutSpoolRate 35.0
jfsRechargeTime 60
jfsMinRechargeRpm 0.12
jfsSpinTime 240
FTITStart 6.100
FTITIdle 5.100
FTITMax 7.600
FTITAB 7.623
mainGenRpm 0.63
stbyGenRpm 0.60
epuBurnTime 600
DeepStallEngineStall 0
engineDamageStopThreshold 15
engineDamageNoRestartThreshold 3
engineDamageHitThreshold 42
complexnozzle 0
animExhNozIdle 0.0
animExhNozMil 10.0
animExhNozMax 5.0
animExhNozAB 0.0
animExhNozABMax 15.0
animExhNozRate 5.0
PropEngineSwitchStates 0
animEngineRPMMult 1000
HeatBlurShift -7
hasReverseThrust 0
ReverseThrustFactor 0.0
minReverseThrustSpeed 0
animReverseAngle 0
animReverseRate 0.0
#-----------------------------------------------------
# JetBlast data
#-----------------------------------------------------
WakeFactor 0.2
WakeAngle 0.02
WakeRange 800
#-----------------------------------------------------
# Flight Dynamics
#-----------------------------------------------------
area2Span 0.0719
pitchMomentum 1.50
rollMomentum 1.80
yawMomentum 1.30
pitchElasticity 1.00
gearPitchFactor 0.00
pitchGearGain 1.00
rollGearGain 1.00
yawGearGain 1.00
AFMcriticalAOA 0.0
#-----------------------------------------------------
# Controls
#-----------------------------------------------------
elevonMaxAngle 20.0
aileronMaxAngle 20.0
rudderMaxAngle 20.0
rollCouple -0.05
elevatorRoll 1
elevRate 60
animAileronRate 45
rudderRate 120
animSpoiler1Max 0
animSpoiler1Rate 45.0
animSpoiler1OffAtWingSweep 70.0
animSpoiler1AirBrake 0
animSpoiler2Max 0
animSpoiler2Rate 45.0
animSpoiler2OffAtWingSweep 70.0
animSpoiler2AirBrake 0
#-----------------------------------------------------
# Trim
#-----------------------------------------------------
pitchElevatorTrimRate 0.08 #Falcas 07/01/2013
pitchAileronTrimRate 0.08 #Falcas 07/01/2013
pitchRudderTrimRate 0.25
trimDeadZonePercentage 0.05
#-----------------------------------------------------
# Flaps
#-----------------------------------------------------
hasFlapperons 1
flapGearRelative 1
maxFlapVcas 370
flapVcasRange 130
flap2Nozzle 0
#-----------------------------------------------------
# Lef (Slats)
#-----------------------------------------------------
haslef 2
lefGround -2.0
lefMaxAngle 20.0
lefMaxMach 0.40
lefNStages 1
CDlefFactor 0.00
lefRate 5
#-----------------------------------------------------
# Tef (Flaps)
#-----------------------------------------------------
hasTef 2
tefMaxAngle 20.0
CLtefFactor 0.50
CDtefFactor 0.20
tefNStages 2
tefTakeoff 0.0
tefRate 5
NoTefSound 0
#-----------------------------------------------------
# Air-Brakes
#-----------------------------------------------------
CDSPDBFactor 0.080
airbrakeMaxAngle 40
airbrakeOutRateFactor 0.333333
airbrakeInRateFactor 0.111111
airbrakeApproachAngle 30 #Added Falcas
minAirbrakeSpeed -1
#-----------------------------------------------------
# Drag Chute
#-----------------------------------------------------
dragChuteCd 0.900
dragChuteMaxSpeed 170
dragChuteDropSpeed 90
dragChuteMinRunwayLength 0
dragChuteDelay 2.0
#-----------------------------------------------------
# Gear and NWS
#-----------------------------------------------------
CDLDGFactor 0.060
sinkRate 15
MLGWOWPercentage 0.90
NLGWOWPercentage 0.50
NWSRateUp 1.5
NWSRateDown 4.0
animWheelRadius1 0.00
animWheelRadius2 0.00
animWheelRadius3 0.00
animWheelRadius4 0.00
animWheelRadius5 0.00
animWheelRadius6 0.00
animWheelRadius7 0.00
animWheelRadius8 0.00
animGearMaxComp1 0.00
animGearMaxComp2 0.00
animGearMaxComp3 0.00
animGearMaxComp4 0.00
animGearMaxComp5 0.00
animGearMaxComp6 0.00
animGearMaxComp7 0.00
animGearMaxComp8 0.00
animGearMaxExt1 0.00
animGearMaxExt2 0.00
animGearMaxExt3 0.00
animGearMaxExt4 0.00
animGearMaxExt5 0.00
animGearMaxExt6 0.00
animGearMaxExt7 0.00
animGearMaxExt8 0.00
animGearInverted 0
GearDofRate1 0.60 #Added Falcas 01/21/2014
GearDofRate2 0.60
GearDofRate3 0.60
GearDofRate4 0.60
GearDofRate5 0.60
GearDofRate6 0.60
GearDofRate7 0.60
GearDofRate8 0.60
GearDelayDown1 1.50 #Added Falcas 01/21/2014
GearDelayDown2 1.50
GearDelayDown3 1.50
GearDelayDown4 1.50
GearDelayDown5 1.50
GearDelayDown6 1.50
GearDelayDown7 1.50
GearDelayDown8 1.50
GearDelayUp1 0.00 #Added Falcas 01/21/2014
GearDelayUp2 0.00
GearDelayUp3 0.00
GearDelayUp4 0.00
GearDelayUp5 0.00
GearDelayUp6 0.00
GearDelayUp7 0.00
GearDelayUp8 0.00
DoorDofRate1 0.60 #Added Falcas 01/21/2014
DoorDofRate2 0.60
DoorDofRate3 0.60
DoorDofRate4 0.60
DoorDofRate5 0.60
DoorDofRate6 0.60
DoorDofRate7 0.60
DoorDofRate8 0.60
DoorDelayDown1 0.00 #Added Falcas 01/21/2014
DoorDelayDown2 0.00
DoorDelayDown3 0.00
DoorDelayDown4 0.00
DoorDelayDown5 0.00
DoorDelayDown6 0.00
DoorDelayDown7 0.00
DoorDelayDown8 0.00
DoorDelayUp1 1.50 #Added Falcas 01/21/2014
DoorDelayUp2 1.50
DoorDelayUp3 1.50
DoorDelayUp4 1.50
DoorDelayUp5 1.50
DoorDelayUp6 1.50
DoorDelayUp7 1.50
DoorDelayUp8 1.50
#-----------------------------------------------------
# Hook
#-----------------------------------------------------
hookTipLocation 0.00 0.00 0.00
animHookAngle 0.0
animHookRate 0.0
#-----------------------------------------------------
# Wing fold
#-----------------------------------------------------
animWingFoldAngle 0
animWingFoldRate 0.0
#-----------------------------------------------------
# Canopy
#-----------------------------------------------------
canopyMaxAngle 20
canopyOpenRate 5.0
canopyCloseRate 5.0
canopyMaxSpeed 70
#-----------------------------------------------------
# Fuel
#-----------------------------------------------------
fuelGaugeMultiplier 10.0
fuelFlowFactorNormal 0.670
fuelFlowFactorAb 2.100
minFuelFlow 1680
fuelFwdRes 0
fuelAftRes 0
fuelFwd1 0
fuelFwd2 0
fuelAft1 0
fuelWingAl 0
fuelWingFr 0
fuelFwdResRate 0.000
fuelAftResRate 0.000
fuelFwd1Rate 0.000
fuelFwd2Rate 0.000
fuelAft1Rate 0.000
fuelWingAlRate 0.000
fuelWingFrRate 0.000
fuelClineRate 0.000
fuelWingExtRate 0.000
fuelMinFwd 400
fuelMinAft 250
#-----------------------------------------------------
# Air-Air Refuel
#-----------------------------------------------------
receiverRefuelServiceType 1 #Added Falcas 01/21/2014. Keep Boom until drogue code is done.
refuelLocation 0.00 0.00 0.00
refuelSpeed 310
refuelAltitude 22500
refuelRate 50
AIBoomDistance 10
decelDistance 6000
desiredClosureFactor 0.42
longLeg 60
shortLeg 25
IL78Factor 35.0
animRefuelAngle 0.0
animRefuelRate 0.0
#-----------------------------------------------------
# Avionics
#-----------------------------------------------------
avionicsCanUseSpice 0
avionicsJDAMAvionicsType 0
avionicsDiffICPStyle 0
avionicsMLUPFL 0
avionicsDatalink 1
avionicsHudLadderTapeType 0
avionicsHudVAHTapeType 0
avionicsHudDGFTDefaultMode 0
avionicsDGFTMasterModeLabelOnHud 0
avionicsDGFTAttitudeAwareness 1
avionicsMLUM2TAOnHUD 1
avionicsHudAATargetAspectAngle 1
avionicsHudOlderMasterModeWindow 0
avionicsNewAMRAAMdlz 1
avionicsBullseyeOnHud 1
avionicsDEDHudRepeaterBlanksOnDGFT 1
avionicsHudNavDeclutterEnabled 1
avionicsHudNavSpdAltTapesLag 0
avionicsZenithNadirOnHud 1
avionicsGhostHorizonAwareness 1
avionicsEPAFRadarCues 1
avionicsRadarJamChevrons 1
avionicsColorMfd 1
avionicsGrayScaleGM 1
avionicsActivateMFDBoot 0
avionicsMMCUpgrade 1
avionicsEGIUpgrade 1
avionicsDigitalFLCS 1
avionicsRWRType 0
avionicsGunEEGSMode 1
avionicsGunSSLCMode 1
avionicsGunLCOSMode 1
avionicsGunSNAPMode 1
avionicsEngineType 0
avionicsMfdCataSymbolAim120 0
avionicsHudOldBAIType 0
avionicsCursorEnableAsToggle 0
avionicsMaverickHandoffCapeable 1
#-----------------------------------------------------
# Autopilot
#-----------------------------------------------------
maxAutopilotMach 0.95
#-----------------------------------------------------
# Locations
#-----------------------------------------------------
PilotEyePos 18.40 0.00 -5.20
wingTipLocation -20.40 23.60 -1.00
#-----------------------------------------------------
# Counter measure
#-----------------------------------------------------
hasEWS 1
ecmStrength 0.000
nChaff 30
nFlare 60
FlareDispensers 1
FlareSeq 0
FlarePos1 -9.10 17.90 1.65
FlareVec1 0.00 0.00 200.00
FlareCount1 30
ChaffDispensers 1
ChaffSeq 0
ChaffPos1 -9.10 17.90 1.65
ChaffVec1 0.00 -8.00 100.00
ChaffCount1 30
#-----------------------------------------------------
# Hardpoint data
#-----------------------------------------------------
hardpoint1Grp 0
hardpoint2Grp 53
hardpoint3Grp 53
hardpoint4Grp 54
hardpoint5Grp 54
hardpoint6Grp 57
hardpoint7Grp 56
hardpoint8Grp 58
hardpoint9Grp 55
hardpoint10Grp 55
hardpoint11Grp 53
hardpoint12Grp 53
hardpoint13Grp 0
hardpoint14Grp 0
hardpoint15Grp 0
hardpoint16Grp 0
#-----------------------------------------------------
# Sounds
#-----------------------------------------------------
sndExternalVol -2000
sndSpdBrakeStart 141
sndSpdBrakeLoop 140
sndSpdBrakeEnd 139
sndSpdBrakeWind 142
sndOverSpeed1 191
sndOverSpeed2 192
sndGunStart 25
sndGunLoop 26
sndGunEnd 27
sndBBPullup 68
sndBBBingo 66
sndBBWarning 63
sndBBCaution 64
sndBBBeeps 301
sndBBChaffFlareLow 184
sndBBFlare 138
sndBBChaffFlare 183
sndBBChaffFlareOut 185
sndBBAltitude 65
sndBBLock 67
sndTouchDown 42
sndWheelBrakes 132
sndDragChute 218
sndLowSpeed 167
sndFlapStart 145
sndFlapLoop 144
sndFlapEnd 143
sndHookStart 195
sndHookLoop 194
sndHookEnd 193
sndGearCloseStart 147
sndGearCloseEnd 146
sndGearOpenStart 149
sndGearOpenEnd 150
sndGearLoop 148
sndCanopyOpenStart 271
sndCanopyOpenLoop 275
sndCanopyOpenEnd 272
sndCanopyCloseStart 273
sndCanopyCloseLoop 361
sndCanopyCloseEnd 274
sndEject 5
sndWind 33
sndBattery 304
sndRadioBuzz 305
sndJFSStart 288
sndJFSLoop 289
sndJFSEnd 290
sndJFSStartInt 306
sndJFSLoopInt 307
sndJFSendInt 308
#-----------------------------------------------------
# Sounds Engine Ext
#-----------------------------------------------------
sndAbExt 225
sndAbExtChart 4 0.00 0.00 0.70 0.75 0.96 0.97 0.98 1.00
sndAbExtPitchChart 3 0.70 2.00 0.97 1.50 1.00 1.00
#
sndExt 222
sndExtChart 3 0.00 0.80 1.00 1.00 1.03 1.00
sndExtPitchChart 6 0.00 0.00 0.70 1.00 0.75 1.30 0.80 1.50 0.85 1.70 0.90 1.70
#
sndExt2 276
sndExt2Chart 3 0.00 0.80 1.00 1.00 1.03 1.00
sndExt2PitchChart 6 0.00 0.00 0.70 1.00 0.75 1.30 0.83 1.60 0.85 1.80 0.90 1.80
#
sndExt3 -1
#-----------------------------------------------------
# Sounds Engine Int
#-----------------------------------------------------
sndInt 34
sndIntChart 5 0.00 0.00 0.60 1.00 0.70 1.00 0.94 1.00 0.97 0.80
sndIntPitchChart 6 0.00 0.00 0.70 1.00 0.75 1.30 0.80 1.60 0.85 1.80 0.90 1.80
#
sndInt2 278
sndInt2Chart 4 0.00 0.00 0.40 0.60 0.70 0.80 0.77 1.00
sndInt2PitchChart 6 0.00 0.00 0.70 1.00 0.75 1.00 0.83 1.01 0.85 1.01 0.90 1.01
#
sndInt3 303
sndInt3Chart 5 0.00 0.00 0.30 1.00 0.70 1.00 0.80 1.00 0.94 1.00
sndInt3PitchChart 6 0.00 0.00 0.70 1.00 0.75 1.00 0.83 1.01 0.85 1.01 0.90 1.01
#
sndAbInt 40
sndAbIntChart 3 0.00 0.00 0.90 0.20 0.97 1.00
#
sndAbInt2 297
sndAbInt2Chart 2 0.00 0.00 0.93 1.00
#-----------------------------------------------------
# Sounds Aero
#-----------------------------------------------------
sndAero1 0
#
sndAero2 0
#
sndAero3 0
#
sndAero4 0
#-----------------------------------------------------
# AI behaviour
#-----------------------------------------------------
rollLimitForAiInWP 60
followRate 60
BingoReturnDistance 50
jokerFactor 7.9
bingoFactor 7.9
fumesFactor 39.8
largePark 0
minTakeoffRunwayLengthClean -1 #Added Falcas
minTakeoffRunwayLengthMTOW -1 #Added Falcas
optTakeoffPitch 10.0 #Added Falcas
gearRetractAlt 15 #Added Falcas
maxClimbPitch 15.0 #Added Falcas
optClimbSpeed 300 #Added Falcas
optClimbMach 0.80 #Added Falcas
minClimbRate -1 #Falcas 31/12/2013
descentPath -1.0 #Added Falcas
landingAOA 9.0 #Falcas 07/01/2013
aiLandingOffset -600 #Added Falcas
MinTGTMAR 5
MaxMARIdedStart 20
AddMARIded5k 0
AddMARIded18k 2
AddMARIded28k 4
AddMARIdedSpike 1
MaxWEZtaStart 9
IsShortBurnThreat 0
IsLongBurnThreat 1
#-----------------------------------------------------
# Missions
#-----------------------------------------------------
misTypeCapability 41 100 100 100 100 100 100 100 100 100 100 100 100 100 100 100 100 100 100 100 100 100 100 100 100 100 100 100 100 100 100 100 100 100 100 100 100 100 100 100 100 100
#-----------------------------------------------------
# TFR
#-----------------------------------------------------
Has_TFR 0
Has_OnboardTFR 0
PID_K 0.5
PID_KI 0.0
PID_KD 0.4
TFR_LimitMX 0.0
TFR_Corner 420
TFR_Gain 0.010
EVA_Gain 15.0 #10-12-2014
TFR_MaxRoll 60
TFR_SoftG 2.0
TFR_MedG 2.0
TFR_HardG 2.0
TFR_Clearance 20
SlowPercent 0
TFR_lookAhead 7000 #10-12-2014
EVA1_SoftFactor 0.6
EVA2_SoftFactor 0.5
EVA1_MedFactor 0.6
EVA2_MedFactor 0.5
EVA1_HardFactor 0.6
EVA2_HardFactor 0.5
TFR_GammaCorrMult 1.5 #10-12-2014
#-----------------------------------------------------
# TGP
#-----------------------------------------------------
Has_TGP 1 #Falcas, Needs to be removed from file later on.
Has_OnboardTGP 0 #Falcas, Needs to be removed from file later on.
#Switch: 0 - No TGP, 1 - Internal TGP, 2 - External on AC, 3 - External on HP
TGP_Type 3 #Added Falcas 14/06/2014
TGP_PodWeight 440.0
TGP_PodDrag 6.0
#Switch: 0 - none, 1 - left, 2 - right
TGP_PodPowerSwitch 2
TGP_PodPosX 2.90
TGP_PodPosY -1.90
TGP_PodPosZ 2.50
#-----------------------------------------------------
# HTS
#-----------------------------------------------------
Has_HTS 0
Has_OnboardHTS 0
HTS_PodWeight 85.0
HTS_PodDrag 4.0
#Switch: 0 - none, 1 - left, 2 - right
HTS_PodPowerSwitch 1
HTS_PodPosX 2.90
HTS_PodPosY -1.90
HTS_PodPosZ 2.50
#-----------------------------------------------------
# Lantirn
#-----------------------------------------------------
Has_LANTIRN 0
Has_OnboardLANTIRN 0
LANTIRN_PodWeight 0.0
LANTIRN_PodDrag 0.0
#Switch: 0 - none, 1 - left, 2 - right
LANTIRN_PodPowerSwitch 1
LANTIRN_PodPosX 0.00
LANTIRN_PodPosY 0.00
LANTIRN_PodPosZ 0.00
LantirnCameraX 10.00
LantirnCameraY 2.00
LantirnCameraZ 5.00
#-----------------------------------------------------
# Gun
#-----------------------------------------------------
gunLocation -3.00 2.00 -1.50
gunTrailID 11
GunEffect 5900
gunPitch 0.00
gunYaw 0.00
canDoGunStrafe 0
#-----------------------------------------------------
# Weapons
#-----------------------------------------------------
A2GHarmAlt 20000
A2GAGMAlt 8000
A2GGBUAlt 20000
A2GDumbHDAlt 1500
A2GClusterAlt 14000
A2GDumbLDAlt 16000
A2GGunRocketAlt 3500
A2GCameraAlt 12000
A2GBombMissileAlt 20000
A2GIAMBombAlt 20000
maxRippleCount 19
maxLoadoutDrag 41 -1 -1 -1 -1 -1 -1 -1 -1 -1 -1 -1 -1 -1 -1 -1 -1 -1 -1 -1 -1 -1 -1 -1 -1 -1 -1 -1 -1 -1 -1 -1 -1 -1 -1 -1 -1 -1 -1 -1 -1 -1
maxLoadoutWeight 41 100 100 100 100 100 100 100 100 100 100 100 100 100 100 100 100 100 100 100 100 100 100 100 100 100 100 100 100 100 100 100 100 100 100 100 100 100 100 100 100 100
minNumFuelTanks 41 0 0 0 0 0 0 0 0 0 0 0 0 0 0 0 0 0 0 0 0 0 0 0 0 0 0 0 0 0 0 0 0 0 0 0 0 0 0 0 0 0
extTanksLoadOrder 1
loadRadarGuidedFirst 1 #Added Falcas
#-----------------------------------------------------
# Rockets
#-----------------------------------------------------
rktAltIsAgl 0
rktHighAlt 3000
rktPreferedAlt 2000
rktLowAlt 1000
rktEmergencyAlt 700
rktFireRange 10000
rktPopupRange -1
rktPopupAlt 0
#-----------------------------------------------------
# ARMs
#-----------------------------------------------------
maxNumARMs 4
#-----------------------------------------------------
# Camera View TopGun
#-----------------------------------------------------
TopGunCamera1 7  -14.00  -27.20   -4.50   +0.00  +28.00   +0.00  60.0 #Left wing looking towards cockpit. (Revientor)
TopGunCamera2 7  +48.00  -27.20   -4.50   +0.00 +120.00   +0.00  60.0 #Right of cockpit looking toward pilots. (Revientor)
TopGunCamera3 7  +26.00   +0.00   +4.00   -2.00 -180.00   +0.00  60.0 #Before air intake looking backwards to gear. (Revientor)
TopGunCamera4 7  +77.00   +0.00  -12.00  -13.00 +180.00   +0.00  47.0 #Placed near the gun (created by Revient0R), looking backward.
#-----------------------------------------------------
# Lights
#-----------------------------------------------------
Light9Position -36.08 -3.58 0.90 # afterburner left by Revientor
Light9Color 0.80 0.60 0.30
Light9Type 10
Light9Radius 20
Light9Attenuation 0.010

Light10Position -39.08 -3.58 0.90 # afterburner left by Revientor
Light10Color 0.80 0.60 0.30
Light10Type 10
Light10Radius 20
Light10Attenuation 0.100

Light11Position -36.08 3.58 0.90 # afterburner right by Revientor
Light11Color 0.80 0.60 0.30
Light11Type 10
Light11Radius 20
Light11Attenuation 0.010

Light12Position -39.08 3.58 0.90 # afterburner right by Revientor
Light12Color 0.80 0.60 0.30
Light12Type 10
Light12Radius 20
Light12Attenuation 0.100
animStrobeOnTime 0.020
animStrobeOffTime 1.000
animWingFlashOnTime 0.030
animWingFlashOffTime 1.500
numFormationLightLevels 0
#-----------------------------------------------------
# Spot Lights
#-----------------------------------------------------
SpotLight1Color 0.25 0.25 0.24 # color of the light
SpotLight1Position 10.11 0.00 1.00 # the light's position
SpotLight1LookAt 10.91 0.00 1.50 # position in model space at which the light should point
SpotLight1Attenuation 0.00010 # attenuation of the light
SpotLight1InnerConeDeg 30.000 # inner cone angle in degrees
SpotLight1OuterConeDeg 45.000 # outer cone angle in degrees
#-----------------------------------------------------
# Additionals that are not included in FMM.
#-----------------------------------------------------

#
# End of Additional
#
END OF DATA